A Chongqing
B [dead]
C [dead]
D [dead]
E Mumbai
F [dead]
G Austin
H [dead]
I Amman
J NewYork
K Houston
L Qatar
M Lebanon
N Dallas
O Shanghai
P [dead]
Q Delhi
R [dead]
S Waco
T [dead]
U Seoul
V London
W Mexico
X Paris
Y Glasgow
Z Bangkok
